%YAML 1.1
%TAG !u! tag:unity3d.com,2011:
--- !u!21 &2100000
Material:
  serializedVersion: 6
  m_ObjectHideFlags: 0
  m_PrefabParentObject: {fileID: 0}
  m_PrefabInternal: {fileID: 0}
  m_Name: Skull
  m_Shader: {fileID: 200, guid: 0000000000000000f000000000000000, type: 0}
  m_ShaderKeywords: 
  m_LightmapFlags: 5
  m_CustomRenderQueue: -1
  stringTagMap: {}
  m_SavedProperties:
    serializedVersion: 2
    m_TexEnvs:
      data:
        first:
          name: _MainTex
        second:
          m_Texture: {fileID: 2800000, guid: f50a40cf50fb3cb4cacd3972bbd6c8ce, type: 3}
          m_Scale: {x: 1, y: 1}
          m_Offset: {x: 0, y: 0}
      data:
        first:
          name: _BumpMap
        second:
          m_Texture: {fileID: 2800000, guid: 3a10f908f02ce084da4e3d19ca505cbd, type: 3}
          m_Scale: {x: 1, y: 1}
          m_Offset: {x: 0, y: 0}
      data:
        first:
          name: _Cube
        second:
          m_Texture: {fileID: 0}
          m_Scale: {x: 1, y: 1}
          m_Offset: {x: 0, y: 0}
    m_Floats:
      data:
        first:
          name: _Reflection
        second: 0.12686567
      data:
        first:
          name: _Cutoff
        second: 0
      data:
        first:
          name: _Shininess
        second: 0.1292817
      data:
        first:
          name: _InvFade
        second: 1
      data:
        first:
          name: _Gloss
        second: 0.5
      data:
        first:
          name: _FrezPow
        second: 2
      data:
        first:
          name: _FrezFalloff
        second: 6.3880596
      data:
        first:
          name: _Metalics
        second: 0.32089552
      data:
        first:
          name: _EdgeAlpha
        second: 0
    m_Colors:
      data:
        first:
          name: _Color
        second: {r: 0.8527292, g: 0.380597, b: 1, a: 1}
      data:
        first:
          name: _SpecColor
        second: {r: 1, g: 0, b: 0, a: 1}
      data:
        first:
          name: _TintColor
        second: {r: 0.58208954, g: 0.58208954, b: 0.58208954, a: 0.5019608}
      data:
        first:
          name: _EmisColor
        second: {r: 0.48507464, g: 0.48507464, b: 0.48507464, a: 0}
