%YAML 1.1
%TAG !u! tag:unity3d.com,2011:
--- !u!74 &7400000
AnimationClip:
  m_ObjectHideFlags: 0
  m_PrefabParentObject: {fileID: 0}
  m_PrefabInternal: {fileID: 0}
  m_Name: Wind04
  serializedVersion: 6
  m_Legacy: 1
  m_Compressed: 0
  m_UseHighQualityCurve: 1
  m_RotationCurves:
  - curve:
      serializedVersion: 2
      m_Curve:
      - time: 0
        value: {x: 0.70710677, y: -0, z: -0, w: -0.70710677}
        inSlope: {x: -0.05814671, y: -2.2204266, z: -2.2204266, w: 0.05814671}
        outSlope: {x: -0.05814671, y: -2.2204266, z: -2.2204266, w: 0.05814671}
        tangentMode: -559038737
      - time: 0.06666667
        value: {x: 0.6916548, y: -0.14701578, z: -0.14701578, w: -0.6916548}
        inSlope: {x: -0.46165472, y: -2.1719046, z: -2.1719046, w: 0.46165472}
        outSlope: {x: -0.46165472, y: -2.1719046, z: -2.1719046, w: 0.46165472}
        tangentMode: -559038737
      - time: 0.30000004
        value: {x: 0.41562685, y: -0.5720614, z: -0.5720614, w: -0.41562685}
        inSlope: {x: -1.7963634, y: -1.305135, z: -1.305135, w: 1.7963634}
        outSlope: {x: -1.7963634, y: -1.305135, z: -1.305135, w: 1.7963634}
        tangentMode: -559038737
      - time: 0.5333335
        value: {x: -0.07391307, y: -0.7032331, z: -0.7032331, w: 0.07391307}
        inSlope: {x: -2.2082624, y: 0.23209712, z: 0.23209712, w: 2.2082624}
        outSlope: {x: -2.2082624, y: 0.23209712, z: 0.23209712, w: 2.2082624}
        tangentMode: 287718480
      - time: 0.7666666
        value: {x: -0.5254826, y: -0.47314692, z: -0.47314692, w: 0.5254826}
        inSlope: {x: -1.4857566, y: 1.6500975, z: 1.6500975, w: 1.4857566}
        outSlope: {x: -1.4857566, y: 1.6500975, z: 1.6500975, w: 1.4857566}
        tangentMode: -559038737
      - time: 0.98333305
        value: {x: -0.70613766, y: -0.03700768, z: -0.03700768, w: 0.70613766}
        inSlope: {x: -0.11620898, y: 2.2173834, z: 2.2173834, w: 0.11620898}
        outSlope: {x: -0.11620898, y: 2.2173834, z: 2.2173834, w: 0.11620898}
        tangentMode: -559038737
      - time: 1
        value: {x: -0.70710677, y: 0.00000006181724, z: 0.00000006181724, w: 0.70710677}
        inSlope: {x: -0.05814573, y: 2.2204268, z: 2.2204268, w: 0.05814573}
        outSlope: {x: -0.05814573, y: 2.2204268, z: 2.2204268, w: 0.05814573}
        tangentMode: -559038737
      m_PreInfinity: 2
      m_PostInfinity: 2
      m_RotationOrder: 4
    path: 
  m_CompressedRotationCurves: []
  m_EulerCurves: []
  m_PositionCurves: []
  m_ScaleCurves: []
  m_FloatCurves:
  - curve:
      serializedVersion: 2
      m_Curve:
      - time: 0
        value: 0
        inSlope: Infinity
        outSlope: Infinity
        tangentMode: 31
      - time: 0.06666667
        value: 0.25
        inSlope: Infinity
        outSlope: Infinity
        tangentMode: 31
      - time: 0.13333334
        value: 0.5
        inSlope: Infinity
        outSlope: Infinity
        tangentMode: 31
      - time: 0.2
        value: 0.75
        inSlope: Infinity
        outSlope: Infinity
        tangentMode: 31
      - time: 0.26666668
        value: 0
        inSlope: Infinity
        outSlope: Infinity
        tangentMode: 31
      - time: 0.33333334
        value: 0.25
        inSlope: Infinity
        outSlope: Infinity
        tangentMode: 31
      - time: 0.4
        value: 0.5
        inSlope: Infinity
        outSlope: Infinity
        tangentMode: 31
      - time: 0.46666667
        value: 0.75
        inSlope: Infinity
        outSlope: Infinity
        tangentMode: 31
      - time: 0.53333336
        value: 0
        inSlope: Infinity
        outSlope: Infinity
        tangentMode: 31
      - time: 0.6
        value: 0.25
        inSlope: Infinity
        outSlope: Infinity
        tangentMode: 31
      - time: 0.6666667
        value: 0.5
        inSlope: Infinity
        outSlope: Infinity
        tangentMode: 31
      - time: 0.73333335
        value: 0.75
        inSlope: Infinity
        outSlope: Infinity
        tangentMode: 31
      - time: 0.8
        value: 0
        inSlope: Infinity
        outSlope: Infinity
        tangentMode: 31
      - time: 0.8666667
        value: 0.25
        inSlope: Infinity
        outSlope: Infinity
        tangentMode: 31
      - time: 0.93333334
        value: 0.5
        inSlope: Infinity
        outSlope: Infinity
        tangentMode: 31
      - time: 1
        value: 0.75
        inSlope: Infinity
        outSlope: Infinity
        tangentMode: 31
      m_PreInfinity: 2
      m_PostInfinity: 2
      m_RotationOrder: 4
    attribute: _MainTex.offset.x
    path: 
    classID: 21
    script: {fileID: 0}
  - curve:
      serializedVersion: 2
      m_Curve:
      - time: 0
        value: 0.75
        inSlope: Infinity
        outSlope: Infinity
        tangentMode: 31
      - time: 0.26666668
        value: 0.5
        inSlope: Infinity
        outSlope: Infinity
        tangentMode: 31
      - time: 0.53333336
        value: 0.25
        inSlope: Infinity
        outSlope: Infinity
        tangentMode: 31
      - time: 0.8
        value: 0
        inSlope: Infinity
        outSlope: Infinity
        tangentMode: 31
      m_PreInfinity: 2
      m_PostInfinity: 2
      m_RotationOrder: 4
    attribute: _MainTex.offset.y
    path: 
    classID: 21
    script: {fileID: 0}
  m_PPtrCurves: []
  m_SampleRate: 60
  m_WrapMode: 2
  m_Bounds:
    m_Center: {x: 0, y: 0, z: 0}
    m_Extent: {x: 0, y: 0, z: 0}
  m_ClipBindingConstant:
    genericBindings: []
    pptrCurveMapping: []
  m_AnimationClipSettings:
    serializedVersion: 2
    m_AdditiveReferencePoseClip: {fileID: 0}
    m_AdditiveReferencePoseTime: 0
    m_StartTime: 0
    m_StopTime: 1
    m_OrientationOffsetY: 0
    m_Level: 0
    m_CycleOffset: 0
    m_HasAdditiveReferencePose: 0
    m_LoopTime: 0
    m_LoopBlend: 0
    m_LoopBlendOrientation: 0
    m_LoopBlendPositionY: 0
    m_LoopBlendPositionXZ: 0
    m_KeepOriginalOrientation: 0
    m_KeepOriginalPositionY: 1
    m_KeepOriginalPositionXZ: 0
    m_HeightFromFeet: 0
    m_Mirror: 0
  m_EditorCurves:
  - curve:
      serializedVersion: 2
      m_Curve:
      - time: 0
        value: 0
        inSlope: Infinity
        outSlope: Infinity
        tangentMode: 31
      - time: 0.06666667
        value: 0.25
        inSlope: Infinity
        outSlope: Infinity
        tangentMode: 31
      - time: 0.13333334
        value: 0.5
        inSlope: Infinity
        outSlope: Infinity
        tangentMode: 31
      - time: 0.2
        value: 0.75
        inSlope: Infinity
        outSlope: Infinity
        tangentMode: 31
      - time: 0.26666668
        value: 0
        inSlope: Infinity
        outSlope: Infinity
        tangentMode: 31
      - time: 0.33333334
        value: 0.25
        inSlope: Infinity
        outSlope: Infinity
        tangentMode: 31
      - time: 0.4
        value: 0.5
        inSlope: Infinity
        outSlope: Infinity
        tangentMode: 31
      - time: 0.46666667
        value: 0.75
        inSlope: Infinity
        outSlope: Infinity
        tangentMode: 31
      - time: 0.53333336
        value: 0
        inSlope: Infinity
        outSlope: Infinity
        tangentMode: 31
      - time: 0.6
        value: 0.25
        inSlope: Infinity
        outSlope: Infinity
        tangentMode: 31
      - time: 0.6666667
        value: 0.5
        inSlope: Infinity
        outSlope: Infinity
        tangentMode: 31
      - time: 0.73333335
        value: 0.75
        inSlope: Infinity
        outSlope: Infinity
        tangentMode: 31
      - time: 0.8
        value: 0
        inSlope: Infinity
        outSlope: Infinity
        tangentMode: 31
      - time: 0.8666667
        value: 0.25
        inSlope: Infinity
        outSlope: Infinity
        tangentMode: 31
      - time: 0.93333334
        value: 0.5
        inSlope: Infinity
        outSlope: Infinity
        tangentMode: 31
      - time: 1
        value: 0.75
        inSlope: Infinity
        outSlope: Infinity
        tangentMode: 31
      m_PreInfinity: 2
      m_PostInfinity: 2
      m_RotationOrder: 4
    attribute: _MainTex.offset.x
    path: 
    classID: 21
    script: {fileID: 0}
  - curve:
      serializedVersion: 2
      m_Curve:
      - time: 0
        value: 0.75
        inSlope: Infinity
        outSlope: Infinity
        tangentMode: 31
      - time: 0.26666668
        value: 0.5
        inSlope: Infinity
        outSlope: Infinity
        tangentMode: 31
      - time: 0.53333336
        value: 0.25
        inSlope: Infinity
        outSlope: Infinity
        tangentMode: 31
      - time: 0.8
        value: 0
        inSlope: Infinity
        outSlope: Infinity
        tangentMode: 31
      m_PreInfinity: 2
      m_PostInfinity: 2
      m_RotationOrder: 4
    attribute: _MainTex.offset.y
    path: 
    classID: 21
    script: {fileID: 0}
  - curve:
      serializedVersion: 2
      m_Curve:
      - time: 0
        value: 0.70710677
        inSlope: -0.05814671
        outSlope: -0.05814671
        tangentMode: 0
      - time: 0.06666667
        value: 0.6916548
        inSlope: -0.46165472
        outSlope: -0.46165472
        tangentMode: 0
      - time: 0.30000004
        value: 0.41562685
        inSlope: -1.7963634
        outSlope: -1.7963634
        tangentMode: 0
      - time: 0.5333335
        value: -0.07391307
        inSlope: -2.2082624
        outSlope: -2.2082624
        tangentMode: 0
      - time: 0.7666666
        value: -0.5254826
        inSlope: -1.4857566
        outSlope: -1.4857566
        tangentMode: 0
      - time: 0.98333305
        value: -0.70613766
        inSlope: -0.11620898
        outSlope: -0.11620898
        tangentMode: 0
      - time: 1
        value: -0.70710677
        inSlope: -0.05814573
        outSlope: -0.05814573
        tangentMode: 0
      m_PreInfinity: 2
      m_PostInfinity: 2
      m_RotationOrder: 4
    attribute: m_LocalRotation.x
    path: 
    classID: 4
    script: {fileID: 0}
  - curve:
      serializedVersion: 2
      m_Curve:
      - time: 0
        value: -0
        inSlope: -2.2204266
        outSlope: -2.2204266
        tangentMode: 0
      - time: 0.06666667
        value: -0.14701578
        inSlope: -2.1719046
        outSlope: -2.1719046
        tangentMode: 0
      - time: 0.30000004
        value: -0.5720614
        inSlope: -1.305135
        outSlope: -1.305135
        tangentMode: 0
      - time: 0.5333335
        value: -0.7032331
        inSlope: 0.23209712
        outSlope: 0.23209712
        tangentMode: 0
      - time: 0.7666666
        value: -0.47314692
        inSlope: 1.6500975
        outSlope: 1.6500975
        tangentMode: 0
      - time: 0.98333305
        value: -0.03700768
        inSlope: 2.2173834
        outSlope: 2.2173834
        tangentMode: 0
      - time: 1
        value: 0.00000006181724
        inSlope: 2.2204268
        outSlope: 2.2204268
        tangentMode: 0
      m_PreInfinity: 2
      m_PostInfinity: 2
      m_RotationOrder: 4
    attribute: m_LocalRotation.y
    path: 
    classID: 4
    script: {fileID: 0}
  - curve:
      serializedVersion: 2
      m_Curve:
      - time: 0
        value: -0
        inSlope: -2.2204266
        outSlope: -2.2204266
        tangentMode: 0
      - time: 0.06666667
        value: -0.14701578
        inSlope: -2.1719046
        outSlope: -2.1719046
        tangentMode: 0
      - time: 0.30000004
        value: -0.5720614
        inSlope: -1.305135
        outSlope: -1.305135
        tangentMode: 0
      - time: 0.5333335
        value: -0.7032331
        inSlope: 0.23209712
        outSlope: 0.23209712
        tangentMode: 0
      - time: 0.7666666
        value: -0.47314692
        inSlope: 1.6500975
        outSlope: 1.6500975
        tangentMode: 0
      - time: 0.98333305
        value: -0.03700768
        inSlope: 2.2173834
        outSlope: 2.2173834
        tangentMode: 0
      - time: 1
        value: 0.00000006181724
        inSlope: 2.2204268
        outSlope: 2.2204268
        tangentMode: 0
      m_PreInfinity: 2
      m_PostInfinity: 2
      m_RotationOrder: 4
    attribute: m_LocalRotation.z
    path: 
    classID: 4
    script: {fileID: 0}
  - curve:
      serializedVersion: 2
      m_Curve:
      - time: 0
        value: -0.70710677
        inSlope: 0.05814671
        outSlope: 0.05814671
        tangentMode: 0
      - time: 0.06666667
        value: -0.6916548
        inSlope: 0.46165472
        outSlope: 0.46165472
        tangentMode: 0
      - time: 0.30000004
        value: -0.41562685
        inSlope: 1.7963634
        outSlope: 1.7963634
        tangentMode: 0
      - time: 0.5333335
        value: 0.07391307
        inSlope: 2.2082624
        outSlope: 2.2082624
        tangentMode: 0
      - time: 0.7666666
        value: 0.5254826
        inSlope: 1.4857566
        outSlope: 1.4857566
        tangentMode: 0
      - time: 0.98333305
        value: 0.70613766
        inSlope: 0.11620898
        outSlope: 0.11620898
        tangentMode: 0
      - time: 1
        value: 0.70710677
        inSlope: 0.05814573
        outSlope: 0.05814573
        tangentMode: 0
      m_PreInfinity: 2
      m_PostInfinity: 2
      m_RotationOrder: 4
    attribute: m_LocalRotation.w
    path: 
    classID: 4
    script: {fileID: 0}
  m_EulerEditorCurves:
  - curve:
      serializedVersion: 2
      m_Curve:
      - time: 0
        value: -90
        inSlope: 0
        outSlope: 0
        tangentMode: 10
      - time: 1
        value: -90
        inSlope: 0
        outSlope: 0
        tangentMode: 10
      m_PreInfinity: 2
      m_PostInfinity: 2
      m_RotationOrder: 4
    attribute: localEulerAnglesBaked.x
    path: 
    classID: 4
    script: {fileID: 0}
  - curve:
      serializedVersion: 2
      m_Curve:
      - time: 0
        value: 0
        inSlope: 360
        outSlope: 360
        tangentMode: 10
      - time: 1
        value: 360
        inSlope: 360
        outSlope: 360
        tangentMode: 10
      m_PreInfinity: 2
      m_PostInfinity: 2
      m_RotationOrder: 4
    attribute: localEulerAnglesBaked.y
    path: 
    classID: 4
    script: {fileID: 0}
  - curve:
      serializedVersion: 2
      m_Curve:
      - time: 0
        value: 0
        inSlope: 0
        outSlope: 0
        tangentMode: 10
      - time: 1
        value: 0
        inSlope: 0
        outSlope: 0
        tangentMode: 10
      m_PreInfinity: 2
      m_PostInfinity: 2
      m_RotationOrder: 4
    attribute: localEulerAnglesBaked.z
    path: 
    classID: 4
    script: {fileID: 0}
  m_HasGenericRootTransform: 0
  m_HasMotionFloatCurves: 0
  m_GenerateMotionCurves: 0
  m_Events: []
